{
    "#mosaic-components:couchdb": {
        "callOperations": {
            "mosaic-couchdb:get-node-identifier": {
                "description": "<div class=\"row\">\n    <div class=\"span2 center\"><a href=\"http://couchdb.apache.org/\"><img src=\"/static/couchdb-logo-small.png\" width=\"80px\" alt=\"CouchDB\" /></a></div>\n    <div class=\"offset2\">\n        <h5>mosaic-couchdb:get-node-identifier</h5>\n        <p>Returns the CouchDB Erlang node identifier (<code>erl -name</code> argument).</p>\n    </div>\n</div>\n", 
                "inputsTemplate": null
            }, 
            "mosaic-couchdb:get-store-http-endpoint": {
                "description": "<div class=\"row\">\n    <div class=\"span2 center\"><a href=\"http://couchdb.apache.org/\"><img src=\"/static/couchdb-logo-small.png\" width=\"80px\" alt=\"CouchDB\" /></a></div>\n    <div class=\"offset2\">\n        <h5>mosaic-couchdb:get-store-http-endpoint</h5>\n        <p>Returns the CouchDB HTTP endpoint (an URL also accessible through a web-browser) which can be accessed with any <a href=\"http://wiki.apache.org/couchdb/Basics\">compatible client</a>. (For further details about the protocol please consult the <a href=\"http://wiki.apache.org/couchdb/Reference\">dedicated page</a>.)</p>\n    </div>\n</div>\n", 
                "inputsTemplate": null
            }
        }, 
        "castOperations": {}, 
        "configurationTemplate": null, 
        "description": "<div class=\"row\">\n    <div class=\"span2 center\"><a href=\"http://couchdb.apache.org/\"><img src=\"/static/couchdb-logo-small.png\" width=\"80px\" alt=\"CouchDB\" /></a></div>\n    <div class=\"offset2\">\n        <h5>mosaic-components:couchdb</h5>\n        <p>CouchDB is a document store. (For details please consult the <a href=\"http://couchdb.apache.org/\">dedicated page</a>.)</p>\n        <p>This is a customized version of CouchDB which presents itself as an integrated mOSAIC component, allowing the user to easily control and monitor the broker as a uniform mOSAIC component.</p>\n    </div>\n</div>\n", 
        "quickCreate": true, 
        "quickCreateName": "CouchDB", 
        "quickCreateOrder": 53
    }, 
    "#mosaic-components:httpg": {
        "callOperations": {
            "mosaic-httpg:get-gateway-endpoint": {
                "description": "<div class=\"row\">\n    <div class=\"span2 center\"><a href=\"http://www.mosaic-cloud.eu/\"><img src=\"/static/mosaic-logo-small.png\" width=\"80px\" alt=\"mOSAIC\" /></a></div>\n    <div class=\"offset2\">\n        <h5>mosaic-httpg:get-gateway-identifier</h5>\n        <p>Returns the mOSAIC Gateway HTTP endpoint which should be accessed by web-clients to reach the backend components.</p>\n    </div>\n</div>\n", 
                "inputsTemplate": null
            }, 
            "mosaic-httpg:get-node-identifier": {
                "description": "<div class=\"row\">\n    <div class=\"span2 center\"><a href=\"http://www.mosaic-cloud.eu/\"><img src=\"/static/mosaic-logo-small.png\" width=\"80px\" alt=\"mOSAIC\" /></a></div>\n    <div class=\"offset2\">\n        <h5>mosaic-httpg:get-node-identifier</h5>\n        <p>Returns the mOSAIC Gateway Erlang node identifier (<code>erl -name</code> argument).</p>\n    </div>\n</div>\n", 
                "inputsTemplate": null
            }
        }, 
        "castOperations": {}, 
        "configurationTemplate": null, 
        "description": "<div class=\"row\">\n    <div class=\"span2 center\"><a href=\"http://www.mosaic-cloud.eu/\"><img src=\"/static/mosaic-logo-small.png\" width=\"80px\" alt=\"mOSAIC\" /></a></div>\n    <div class=\"offset2\">\n        <h5>mosaic-components:httpg</h5>\n    </div>\n</div>\n", 
        "quickCreate": true, 
        "quickCreateName": "mOSAIC HTTP-G", 
        "quickCreateOrder": 21
    }, 
    "#mosaic-components:java-cloudlet-container": {
        "callOperations": {}, 
        "castOperations": {}, 
        "configurationTemplate": [
            "<<cloudlet>>.properties", 
            "http://<<host>>/<<cloudlet>>.jar"
        ], 
        "quickCreate": true, 
        "quickCreateName": "mOSAIC Cloudlet", 
        "quickCreateOrder": 11
    }, 
    "#mosaic-components:java-component-container": {
        "callOperations": {}, 
        "castOperations": {}, 
        "configurationTemplate": [
            "<<callbacks-class>>", 
            "http://<<host>>/<<component>>.jar"
        ]
    }, 
    "#mosaic-components:java-driver-amqp": {
        "callOperations": {
            "mosaic-component:get.channel.data": {
                "description": null, 
                "inputsTemplate": null
            }
        }, 
        "castOperations": {}, 
        "configurationTemplate": null, 
        "quickCreate": true, 
        "quickCreateName": "mOSAIC AMQP Driver", 
        "quickCreateOrder": 22
    }, 
    "#mosaic-components:java-driver-hdfs": {
        "callOperations": {
            "mosaic-component:get.channel.data": {
                "description": null, 
                "inputsTemplate": null
            }
        }, 
        "castOperations": {}, 
        "configurationTemplate": [
            {
                "hdfs.host": "127.0.0.1", 
                "hdfs.port": 9000
            }
        ], 
        "quickCreate": true, 
        "quickCreateName": "mOSAIC HDFS Driver", 
        "quickCreateOrder": 24
    }, 
    "#mosaic-components:java-driver-riak": {
        "callOperations": {
            "mosaic-component:get.channel.data": {
                "description": null, 
                "inputsTemplate": null
            }
        }, 
        "castOperations": {}, 
        "configurationTemplate": null, 
        "quickCreate": true, 
        "quickCreateName": "mOSAIC Riak Driver", 
        "quickCreateOrder": 23
    }, 
    "#mosaic-components:rabbitmq": {
        "callOperations": {
            "mosaic-rabbitmq:get-broker-endpoint": {
                "description": "<div class=\"row\">\n    <div class=\"span2 center\"><a href=\"http://www.rabbitmq.com/\"><img src=\"/static/rabbitmq-logo-small.png\" width=\"80px\" alt=\"RabbitMQ\" /></a></div>\n    <div class=\"offset2\">\n        <h5>mosaic-rabbitmq:get-broker-endpoint</h5>\n        <p>Returns the RabbitMQ broker endpoint (IP and port) which can be accessed with any <a href=\"http://www.rabbitmq.com/devtools.html\">compatible client</a>.</p>\n    </div>\n</div>\n", 
                "inputsTemplate": null
            }, 
            "mosaic-rabbitmq:get-management-endpoint": {
                "description": "<div class=\"row\">\n    <div class=\"span2 center\"><a href=\"http://www.rabbitmq.com/\"><img src=\"/static/rabbitmq-logo-small.png\" width=\"80px\" alt=\"RabbitMQ\" /></a></div>\n    <div class=\"offset2\">\n        <h5>mosaic-rabbitmq:get-management-endpoint</h5>\n        <p>Returns the RabbitMQ management plug-in endpoint (an URL accessible through a web-browser). (For details please consult the <a href=\"http://www.rabbitmq.com/management.html\">dedicated page</a>.)</p>\n    </div>\n</div>\n", 
                "inputsTemplate": null
            }, 
            "mosaic-rabbitmq:get-node-identifier": {
                "description": "<div class=\"row\">\n    <div class=\"span2 center\"><a href=\"http://www.rabbitmq.com/\"><img src=\"/static/rabbitmq-logo-small.png\" width=\"80px\" alt=\"RabbitMQ\" /></a></div>\n    <div class=\"offset2\">\n        <h5>mosaic-rabbitmq:get-node-identifier</h5>\n        <p>Returns the RabbitMQ Erlang node identifier (<code>erl -name</code> argument).</p>\n    </div>\n</div>\n", 
                "inputsTemplate": null
            }
        }, 
        "castOperations": {}, 
        "configurationTemplate": null, 
        "description": "<div class=\"row\">\n    <div class=\"span2 center\"><a href=\"http://www.rabbitmq.com/\"><img src=\"/static/rabbitmq-logo-small.png\" width=\"80px\" alt=\"RabbitMQ\" /></a></div>\n    <div class=\"offset2\">\n        <h5>mosaic-components:rabbitmq</h5>\n        <p>RabbitMQ is an <a href=\"http://amqp.org/\">AMQP</a> compliant message queue broker. (For details please consult the <a href=\"http://www.rabbitmq.com/\">dedicated page</a>.)</p>\n        <p>This is a customized version of RabbitMQ which presents itself as an integrated mOSAIC component, allowing the user to easily control and monitor the broker as a uniform mOSAIC component.</p>\n    </div>\n</div>\n", 
        "quickCreate": true, 
        "quickCreateName": "RabbitMQ", 
        "quickCreateOrder": 51
    }, 
    "#mosaic-components:riak-kv": {
        "callOperations": {
            "mosaic-riak-kv:get-handoff-endpoint": {
                "description": "<div class=\"row\">\n    <div class=\"span2 center\"><a href=\"http://www.basho.com/products_riak_overview.php\"><img src=\"/static/riak-logo-small.png\" width=\"80px\" alt=\"Riak\" /></a></div>\n    <div class=\"offset2\">\n        <h5>mosaic-riak-kv:get-handoff-endpoint</h5>\n        <p>Returns the Riak handoff endpoint (IP and port) which is used in key / value pairs handoff. (For details please consult the <a href=\"http://wiki.basho.com/Riak-Glossary.html\">dedicated page</a>.</p>\n    </div>\n</div>\n", 
                "inputsTemplate": null
            }, 
            "mosaic-riak-kv:get-node-identifier": {
                "description": "<div class=\"row\">\n    <div class=\"span2 center\"><a href=\"http://www.basho.com/products_riak_overview.php\"><img src=\"/static/riak-logo-small.png\" width=\"80px\" alt=\"Riak\" /></a></div>\n    <div class=\"offset2\">\n        <h5>mosaic-riak-kv:get-node-identifier</h5>\n        <p>Returns the Riak Erlang node identifier (<code>erl -name</code> argument).</p>\n    </div>\n</div>\n", 
                "inputsTemplate": null
            }, 
            "mosaic-riak-kv:get-store-http-endpoint": {
                "description": "<div class=\"row\">\n    <div class=\"span2 center\"><a href=\"http://www.basho.com/products_riak_overview.php\"><img src=\"/static/riak-logo-small.png\" width=\"80px\" alt=\"Riak\" /></a></div>\n    <div class=\"offset2\">\n        <h5>mosaic-riak-kv:get-store-http-endpoint</h5>\n        <p>Returns the Riak HTTP endpoint (an URL also accessible through a web-browser) which can be accessed with any <a href=\"http://wiki.basho.com/Client-Libraries.html\">compatible client</a>. (For further details about the protocol please consult the <a href=\"http://wiki.basho.com/HTTP-API.html\">dedicated page</a>.)</p>\n    </div>\n</div>\n", 
                "inputsTemplate": null
            }, 
            "mosaic-riak-kv:get-store-pb-endpoint": {
                "description": "<div class=\"row\">\n    <div class=\"span2 center\"><a href=\"http://www.basho.com/products_riak_overview.php\"><img src=\"/static/riak-logo-small.png\" width=\"80px\" alt=\"Riak\" /></a></div>\n    <div class=\"offset2\">\n        <h5>mosaic-riak-kv:get-store-pb-endpoint</h5>\n        <p>Returns the Riak ProtocolBuffers endpoint which can be accessed with any <a href=\"http://wiki.basho.com/Client-Libraries.html\">compatible client</a>. (For further details about the protocol please consult the <a href=\"http://wiki.basho.com/PBC-API.html\">dedicated page</a>.)</p>\n    </div>\n</div>\n", 
                "inputsTemplate": null
            }
        }, 
        "castOperations": {}, 
        "configurationTemplate": null, 
        "description": "<div class=\"row\">\n    <div class=\"span2 center\"><a href=\"http://www.basho.com/products_riak_overview.php\"><img src=\"/static/riak-logo-small.png\" width=\"80px\" alt=\"Riak\" /></a></div>\n    <div class=\"offset2\">\n        <h5>mosaic-components:riak-kv</h5>\n        <p>Riak is a Dynamo-inspired key / value store. (For details please consult the <a href=\"http://www.basho.com/products_riak_overview.php\">dedicated page</a>.)</p>\n        <p>This is a customized version of Riak which presents itself as an integrated mOSAIC component, allowing the user to easily control and monitor the broker as a uniform mOSAIC component.</p>\n    </div>\n</div>\n", 
        "quickCreate": true, 
        "quickCreateName": "RiakKV", 
        "quickCreateOrder": 52
    }
}